HW5
…
Exercise 3: File input/output (I/O)

Task: Experiment with write/read_csv()

Like we did in class, I will make a new data table of a subset of the gapminder data:

am_data <- 
  gapminder %>% 
  filter(continent == "Americas") %>% 
  group_by(country) %>% 
  summarize(mean(gdpPercap), mean(lifeExp))
am_data

## # A tibble: 25 x 3
##    country            `mean(gdpPercap)` `mean(lifeExp)`
##    <fct>                          <dbl>           <dbl>
##  1 Argentina                      8956.            69.1
##  2 Bolivia                        2961.            52.5
##  3 Brazil                         5829.            62.2
##  4 Canada                        22411.            74.9
##  5 Chile                          6703.            67.4
##  6 Colombia                       4195.            63.9
##  7 Costa Rica                     5449.            70.2
##  8 Cuba                           6283.            71.0
##  9 Dominican Republic             2845.            61.6
## 10 Ecuador                        5734.            62.8
## # ... with 15 more rows

write to a file:

write_csv(am_data,
         here("am_data.csv"))

upload again:

am_data2 <- read_csv(here("am_data.csv"))
am_data2

## # A tibble: 25 x 3
##    country            `mean(gdpPercap)` `mean(lifeExp)`
##    <chr>                          <dbl>           <dbl>
##  1 Argentina                      8956.            69.1
##  2 Bolivia                        2961.            52.5
##  3 Brazil                         5829.            62.2
##  4 Canada                        22411.            74.9
##  5 Chile                          6703.            67.4
##  6 Colombia                       4195.            63.9
##  7 Costa Rica                     5449.            70.2
##  8 Cuba                           6283.            71.0
##  9 Dominican Republic             2845.            61.6
## 10 Ecuador                        5734.            62.8
## # ... with 15 more rows
…
