…
## 1.3

Filtering for drops in life expectancy (LE) and adding new variable for
change in LE (I’m filtering for drops in LE, so these will be negative)

``` r
(gapminder2 <- 
   gapminder %>% 
   arrange(year) %>% 
   group_by(country) %>% 
   mutate(LE_change = gdpPercap - lag(gdpPercap)) %>% 
   filter(LE_change < 0))
```

    ## # A tibble: 332 x 7
    ## # Groups:   country [115]
    ##    country              continent  year lifeExp     pop gdpPercap LE_change
    ##    <fct>                <fct>     <int>   <dbl>   <int>     <dbl>     <dbl>
    ##  1 Bangladesh           Asia       1957    39.3  5.14e7      662.     -22.6
    ##  2 Benin                Africa     1957    40.4  1.93e6      960.    -103. 
    ##  3 Bolivia              Americas   1957    41.9  3.21e6     2128.    -550. 
    ##  4 Haiti                Americas   1957    40.7  3.51e6     1727.    -113. 
    ##  5 Malaysia             Asia       1957    52.1  7.74e6     1810.     -21.1
    ##  6 Morocco              Africa     1957    45.4  1.14e7     1642.     -46.2
    ##  7 Sao Tome and Princi~ Africa     1957    48.9  6.13e4      861.     -18.8
    ##  8 Sri Lanka            Asia       1957    61.5  9.13e6     1073.     -11.0
    ##  9 Tanzania             Africa     1957    43.0  9.45e6      699.     -18.1
    ## 10 Tunisia              Africa     1957    47.1  3.95e6     1395.     -73.2
    ## # ... with 322 more rows

## 1.4

Showing max GDP per capita experienced by each country:

``` r
gapminder %>%
  group_by(country) %>% 
  filter(gdpPercap == max(gdpPercap))
```

    ## # A tibble: 142 x 6
    ## # Groups:   country [142]
    ##    country     continent  year lifeExp       pop gdpPercap
    ##    <fct>       <fct>     <int>   <dbl>     <int>     <dbl>
    ##  1 Afghanistan Asia       1982    39.9  12881816      978.
    ##  2 Albania     Europe     2007    76.4   3600523     5937.
    ##  3 Algeria     Africa     2007    72.3  33333216     6223.
    ##  4 Angola      Africa     1967    36.0   5247469     5523.
    ##  5 Argentina   Americas   2007    75.3  40301927    12779.
    ##  6 Australia   Oceania    2007    81.2  20434176    34435.
    ##  7 Austria     Europe     2007    79.8   8199783    36126.
    ##  8 Bahrain     Asia       2007    75.6    708573    29796.
    ##  9 Bangladesh  Asia       2007    64.1 150448339     1391.
    ## 10 Belgium     Europe     2007    79.4  10392226    33693.
    ## # ... with 132 more rows
…
#### Continent:

5 categories, but that summary table is misleading because it includes
all of the years that data was collected. So, I’m isolating it to one
year:

``` r
(gapminder3 <- 
  gapminder %>% 
  filter(year == "2002"))
```

    ## # A tibble: 142 x 6
    ##    country     continent  year lifeExp       pop gdpPercap
    ##    <fct>       <fct>     <int>   <dbl>     <int>     <dbl>
    ##  1 Afghanistan Asia       2002    42.1  25268405      727.
    ##  2 Albania     Europe     2002    75.7   3508512     4604.
    ##  3 Algeria     Africa     2002    71.0  31287142     5288.
    ##  4 Angola      Africa     2002    41.0  10866106     2773.
    ##  5 Argentina   Americas   2002    74.3  38331121     8798.
    ##  6 Australia   Oceania    2002    80.4  19546792    30688.
    ##  7 Austria     Europe     2002    79.0   8148312    32418.
    ##  8 Bahrain     Asia       2002    74.8    656397    23404.
    ##  9 Bangladesh  Asia       2002    62.0 135656790     1136.
    ## 10 Belgium     Europe     2002    78.3  10311970    30486.
    ## # ... with 132 more rows
…
